…
docs <- tm_map(mycorpus, content_transformer(tolower))                                           # Convert the text to lower case
docs <- tm_map(docs, stemDocument)                                                               # Stemming

###########################################
#    Conversion to document term matrix   #
###########################################
dtm <- DocumentTermMatrix(docs)    
ap_td <- tidytext::tidy(dtm)
ap_td
```

    ## # A tibble: 543,328 x 3
    ##    document       term count
    ##       <chr>      <chr> <dbl>
    ##  1        1      adopt     1
    ##  2        1        and     3
    ##  3        1       anim     3
    ##  4        1     aspect     1
    ##  5        1       bred     1
    ##  6        1     captiv     1
    ##  7        1   criteria     1
    ##  8        1    current     1
    ##  9        1 discussed.     1
    ## 10        1  distribut     1
    ## # ... with 543,318 more rows

``` r
ap_sentiments <- ap_td %>%
  inner_join(get_sentiments("afinn"), by = c(term = "word"))
ap_sentiments$sentiment <- ifelse(ap_sentiments$score > 0, "positive","negative")
ap_sentiments
```

    ## # A tibble: 16,574 x 5
    ##    document      term count score sentiment
    ##       <chr>     <chr> <dbl> <int>     <chr>
    ##  1        1     adopt     1     1  positive
    ##  2        2     crash     1    -2  negative
    ##  3        2   protect     1     1  positive
    ##  4        2    strong     2     2  positive
    ##  5        2   success     3     2  positive
    ##  6        3 disappear     1    -1  negative
    ##  7        3      loss     1    -3  negative
    ##  8        3   protect     1     1  positive
    ##  9        3  restrict     1    -2  negative
    ## 10        4       bad     1    -3  negative
    ## # ... with 16,564 more rows
…
